0000
0001
0002
0003
0004
0010
0011
0012
0013
0014
0020
0021
0022
0023
0024
0030
0031
0032
0033
0034
0040
0041
0042
0043
0044
0100
0101
0102
0103
0104
0110
0111
0112
0113
0114
0120
0121
0122
0123
0124
0130
0131
0132
0133
0134
0140
0141
0142
0143
0144
0200
0201
0202
0203
0204
0210
0211
0212
0213
0214
0220
0221
0222
0223
0224
0230
0231
0232
0233
0234
0240
0241
0242
0243
0244
0300
0301
0302
0303
0304
0310
0311
0312
0313
0314
0320
0321
0322
0323
0324
0330
0331
0332
0333
0334
0340
0341
0342
0343
0344
0400
0401
0402
0403
0404
0410
0411
0412
0413
0414
0420
0421
0422
0423
0424
0430
0431
0432
0433
0434
0440
0441
0442
0443
0444
1000
1001
1002
1003
1004
1010
1011
1012
1013
1014
1020
1021
1022
1023
1024
1030
1031
1032
1033
1034
1040
1041
1042
1043
1044
1100
1101
1102
1103
1104
1110
1111
1112
1113
1114
1120
1121
1122
1123
1124
1130
1131
1132
1133
1134
1140
1141
1142
1143
1144
1200
1201
1202
1203
1204
1210
1211
1212
1213
1214
1220
1221
1222
1223
1224
1230
1231
1232
1233
1234
1240
1241
1242
1243
1244
1300
1301
1302
1303
1304
1310
1311
1312
1313
1314
1320
1321
1322
1323
1324
1330
1331
1332
1333
1334
1340
1341
1342
1343
1344
1400
1401
1402
1403
1404
1410
1411
1412
1413
1414
1420
1421
1422
1423
1424
1430
1431
1432
1433
1434
1440
1441
1442
1443
1444
2000
2001
2002
2003
2004
2010
2011
2012
2013
2014
2020
2021
2022
2023
2024
2030
2031
2032
2033
2034
2040
2041
2042
2043
2044
2100
2101
2102
2103
2104
2110
2111
2112
2113
2114
2120
2121
2122
2123
2124
2130
2131
2132
2133
2134
2140
2141
2142
2143
2144
2200
2201
2202
2203
2204
2210
2211
2212
2213
2214
2220
2221
2222
2223
2224
2230
2231
2232
2233
2234
2240
2241
2242
2243
2244
2300
2301
2302
2303
2304
2310
2311
2312
2313
2314
2320
2321
2322
2323
2324
2330
2331
2332
2333
2334
2340
2341
2342
2343
2344
2400
2401
2402
2403
2404
2410
2411
2412
2413
2414
2420
2421
2422
2423
2424
2430
2431
2432
2433
2434
2440
2441
2442
2443
2444
3000
3001
3002
3003
3004
3010
3011
3012
3013
3014
3020
3021
3022
3023
3024
3030
3031
3032
3033
3034
3040
3041
3042
3043
3044
3100
3101
3102
3103
3104
3110
3111
3112
3113
3114
3120
3121
3122
3123
3124
3130
3131
3132
3133
3134
3140
3141
3142
3143
3144
3200
3201
3202
3203
3204
3210
3211
3212
3213
3214
3220
3221
3222
3223
3224
3230
3231
3232
3233
3234
3240
3241
3242
3243
3244
3300
3301
3302
3303
3304
3310
3311
3312
3313
3314
3320
3321
3322
3323
3324
3330
3331
3332
3333
3334
3340
3341
3342
3343
3344
3400
3401
3402
3403
3404
3410
3411
3412
3413
3414
3420
3421
3422
3423
3424
3430
3431
3432
3433
3434
3440
3441
3442
3443
3444
4000
4001
4002
4003
4004
4010
4011
4012
4013
4014
4020
4021
4022
4023
4024
4030
4031
4032
4033
4034
4040
4041
4042
4043
4044
4100
4101
4102
4103
4104
4110
4111
4112
4113
4114
4120
4121
4122
4123
4124
4130
4131
4132
4133
4134
4140
4141
4142
4143
4144
4200
4201
4202
4203
4204
4210
4211
4212
4213
4214
4220
4221
4222
4223
4224
4230
4231
4232
4233
4234
4240
4241
4242
4243
4244
4300
4301
4302
4303
4304
4310
4311
4312
4313
4314
4320
4321
4322
4323
4324
4330
4331
4332
4333
4334
4340
4341
4342
4343
4344
4400
4401
4402
4403
4404
4410
4411
4412
4413
4414
4420
4421
4422
4423
4424
4430
4431
4432
4433
4434
4440
4441
4442
4443
4444
password